\relax 
\providecommand\hyper@newdestlabel[2]{}
\providecommand\zref@newlabel[2]{}
\providecommand\HyperFirstAtBeginDocument{\AtBeginDocument}
\HyperFirstAtBeginDocument{\ifx\hyper@anchor\@undefined
\global\let\oldcontentsline\contentsline
\gdef\contentsline#1#2#3#4{\oldcontentsline{#1}{#2}{#3}}
\global\let\oldnewlabel\newlabel
\gdef\newlabel#1#2{\newlabelxx{#1}#2}
\gdef\newlabelxx#1#2#3#4#5#6{\oldnewlabel{#1}{{#2}{#3}}}
\AtEndDocument{\ifx\hyper@anchor\@undefined
\let\contentsline\oldcontentsline
\let\newlabel\oldnewlabel
\fi}
\fi}
\global\let\hyper@last\relax 
\gdef\HyperFirstAtBeginDocument#1{#1}
\providecommand\HyField@AuxAddToFields[1]{}
\providecommand\HyField@AuxAddToCoFields[2]{}
\citation{izzardNewSyntheticModel2004,izzardPopulationNucleosynthesisSingle2006,izzardPopulationSynthesisBinary2009,izzardBinaryStarsGalactic2018}
\citation{astropycollaborationAstropyCommunityPython2013,foreman-mackeyEmceeMCMCHammer2013,astropycollaborationAstropyProjectBuilding2018,speagleDynestyDynamicNested2020}
\citation{mirouh_etal22}
\@writefile{toc}{\contentsline {section}{\numberline {1}Summary}{1}{section.1}\protected@file@percent }
\newlabel{sec:summary}{{1}{1}{Summary}{section.1}{}}
\@writefile{toc}{\contentsline {section}{\numberline {2}Statement of need}{1}{section.2}\protected@file@percent }
\newlabel{sec:statement}{{2}{1}{Statement of need}{section.2}{}}
\@writefile{toc}{\contentsline {section}{\numberline {3}Projects that use \textsc  {binary\_c-python}}{1}{section.3}\protected@file@percent }
\newlabel{sec:projects}{{3}{1}{Projects that use \binarycpython }{section.3}{}}
\bibstyle{mnras-custom.bst}
\bibdata{references.bib}
\bibcite{astropycollaborationAstropyCommunityPython2013}{{1}{2013}{{{Astropy Collaboration} et~al.}}{{{Astropy Collaboration} et~al.,}}}
\bibcite{astropycollaborationAstropyProjectBuilding2018}{{2}{2018}{{{Astropy Collaboration} et~al.}}{{{Astropy Collaboration} et~al.,}}}
\bibcite{foreman-mackeyEmceeMCMCHammer2013}{{3}{2013}{{{Foreman-Mackey} et~al.}}{{{Foreman-Mackey}, Hogg, Lang \& Goodman}}}
\bibcite{izzardNewSyntheticModel2004}{{4}{2004}{{Izzard et~al.}}{{Izzard, Tout, Karakas \& Pols}}}
\bibcite{izzardPopulationNucleosynthesisSingle2006}{{5}{2006}{{Izzard et~al.}}{{Izzard, Dray, Karakas, Lugaro \& Tout}}}
\bibcite{izzardPopulationSynthesisBinary2009}{{6}{2009}{{Izzard et~al.}}{{Izzard, Glebbeek, Stancliffe \& Pols}}}
\bibcite{izzardBinaryStarsGalactic2018}{{7}{2018}{{Izzard et~al.}}{{Izzard, Preece, Jofre, Halabi, Masseron \& Tout}}}
\bibcite{mirouh_etal22}{{8}{submitted}{{{Mirouh} et~al.}}{{{Mirouh}, {Hendriks}, {Dykes}, {Moe} \& {Izzard}}}}
\bibcite{speagleDynestyDynamicNested2020}{{9}{2020}{{Speagle}}{{Speagle}}}
\@writefile{toc}{\contentsline {section}{\numberline {4}Acknowledgements}{2}{section.4}\protected@file@percent }
\newlabel{sec:orgf6f5520}{{4}{2}{Acknowledgements}{section.4}{}}
\ulp@afterend
